Survived,Pclass,Sex,Age,SibSp,Parch,Ticket,Fare,Embarked
0,3,2,22.0,1,0,21171.0,7.25,3
1,3,1,26.0,0,0,3101282.0,7.925,3
1,1,1,35.0,1,0,113803.0,26.55,3
0,3,2,35.0,0,0,373450.0,8.05,3
0,3,2,32.0,0,0,330877.0,8.4583,2
0,1,2,54.0,0,0,17463.0,51.8625,3
0,3,2,2.0,3,1,349909.0,5.26875,3
1,3,1,27.0,0,2,347742.0,3.7111,3
1,2,1,14.0,1,0,237736.0,15.0354,1
1,3,1,4.0,1,1,9549.0,8.35,3
1,1,1,58.0,0,0,113783.0,26.55,3
0,3,2,20.0,0,0,2151.0,8.05,3
0,3,2,39.0,1,5,347082.0,4.4678571428571425,3
0,3,1,14.0,0,0,350406.0,7.8542,3
1,2,1,55.0,0,0,248706.0,16.0,3
0,3,2,2.0,4,1,382652.0,5.825,2
1,2,2,32.0,0,0,244373.0,13.0,3
0,3,1,31.0,1,0,345763.0,18.0,3
1,3,1,35.0,0,0,2649.0,7.225,1
0,2,2,35.0,0,0,239865.0,13.0,3
1,2,2,34.0,0,0,248698.0,13.0,3
1,3,1,15.0,0,0,330923.0,8.0292,2
1,1,2,28.0,0,0,113788.0,35.5,3
0,3,1,8.0,3,1,349909.0,5.26875,3
1,3,1,38.0,1,5,347077.0,7.846875,3
0,3,2,32.0,0,0,2631.0,7.225,1
0,1,2,19.0,3,2,19950.0,65.75,3
1,3,1,21.0,0,0,330959.0,7.8792,2
0,3,2,32.0,0,0,349216.0,7.8958,3
0,1,2,40.0,0,0,17601.0,27.7208,1
1,3,1,21.0,0,0,335677.0,7.75,2
0,2,2,66.0,0,0,24579.0,10.5,3
0,1,2,28.0,1,0,17604.0,41.0854,1
0,1,2,42.0,1,0,113789.0,26.0,3
1,3,2,32.0,0,0,2677.0,7.2292,1
0,3,2,21.0,0,0,2152.0,8.05,3
0,3,1,18.0,2,0,345764.0,9.0,3
1,3,1,14.0,1,0,2651.0,5.62085,1
0,3,1,40.0,1,0,7546.0,9.475,3
0,2,1,27.0,1,0,11668.0,10.5,3
0,3,2,32.0,0,0,349253.0,7.8958,1
1,2,1,3.0,1,2,2123.0,13.859733333333333,1
1,3,1,19.0,0,0,330958.0,7.8792,2
0,3,2,32.0,0,0,23567.0,8.05,3
0,3,2,32.0,1,0,370371.0,15.5,2
1,3,1,21.0,0,0,14311.0,7.75,2
0,3,2,32.0,2,0,2662.0,21.6792,1
0,3,1,18.0,1,0,349237.0,8.9,3
0,3,2,7.0,4,1,3101295.0,6.614583333333333,3
0,3,2,21.0,0,0,39886.0,7.8,3
1,1,1,49.0,1,0,17572.0,25.576400000000003,1
1,2,1,29.0,1,0,2926.0,26.0,3
0,1,2,65.0,0,1,113509.0,61.9792,1
1,1,2,32.0,0,0,19947.0,35.5,3
1,2,1,21.0,0,0,31026.0,10.5,3
0,3,2,28.5,0,0,2697.0,7.2292,1
1,2,1,5.0,1,2,34651.0,9.25,3
0,3,2,11.0,5,2,2144.0,7.816666666666666,3
0,3,2,22.0,0,0,2669.0,7.2292,1
1,1,1,38.0,0,0,113572.0,40.0,3
0,1,2,45.0,1,0,36973.0,41.7375,3
0,3,2,4.0,3,2,347088.0,4.6499999999999995,3
0,1,2,32.0,0,0,17605.0,27.7208,1
1,3,2,4.0,1,1,2661.0,7.6229,1
1,2,1,29.0,0,0,29395.0,10.5,3
0,3,2,19.0,0,0,3464.0,8.1583,3
1,3,1,17.0,4,2,3101281.0,7.925,3
0,3,2,26.0,2,0,315151.0,8.6625,3
0,2,2,32.0,0,0,33111.0,10.5,3
0,3,1,16.0,5,2,2144.0,7.816666666666666,3
0,2,2,21.0,0,0,14879.0,14.7,3
0,3,2,26.0,1,0,2680.0,14.4542,1
1,3,2,32.0,0,0,1601.0,8.070828571428573,3
0,3,2,25.0,0,0,348123.0,7.65,3
0,3,2,32.0,0,0,349208.0,7.8958,3
0,3,2,32.0,0,0,374746.0,8.05,3
1,2,2,0.83,0,2,248738.0,14.5,3
1,3,1,30.0,0,0,364516.0,6.2375,3
0,3,2,22.0,0,0,345767.0,9.0,3
1,3,2,29.0,0,0,345779.0,9.5,3
1,3,1,21.0,0,0,330932.0,7.7875,2
0,1,2,28.0,0,0,113059.0,47.1,3
1,2,1,17.0,0,0,14885.0,10.5,3
1,3,1,33.0,3,0,3101278.0,7.925,3
0,3,2,16.0,1,3,6608.0,8.59375,3
0,3,2,32.0,0,0,392086.0,8.05,3
1,1,1,23.0,3,2,19950.0,65.75,3
0,3,2,24.0,0,0,343275.0,8.05,3
0,3,2,29.0,0,0,343276.0,8.05,3
0,3,2,20.0,0,0,347466.0,7.8542,3
0,1,2,46.0,1,0,5734.0,61.175,3
0,3,2,26.0,1,2,2315.0,10.2875,3
0,3,2,59.0,0,0,364500.0,7.25,3
0,3,2,32.0,0,0,374910.0,8.05,3
0,1,2,71.0,0,0,17754.0,34.6542,1
1,1,2,23.0,0,1,17759.0,63.3583,1
1,2,1,34.0,0,1,231919.0,11.5,3
0,2,2,34.0,1,0,244367.0,13.0,3
0,3,1,28.0,0,0,349245.0,7.8958,3
0,3,2,32.0,0,0,349215.0,7.8958,3
0,1,2,21.0,0,1,35281.0,38.64375,3
0,3,2,33.0,0,0,7540.0,8.6542,3
0,3,2,37.0,2,0,3101276.0,7.925,3
0,3,2,28.0,0,0,349207.0,7.8958,3
1,3,1,21.0,0,0,343120.0,7.65,3
1,3,2,32.0,0,0,312991.0,7.775,3
0,3,2,38.0,0,0,349249.0,7.8958,3
1,3,1,21.0,1,0,371110.0,8.049999999999999,2
0,1,2,47.0,0,0,110465.0,26.0,3
0,3,1,14.5,1,0,2665.0,7.2271,1
0,3,2,22.0,0,0,324669.0,8.05,3
0,3,1,20.0,1,0,4136.0,9.825,3
0,3,1,17.0,0,0,2627.0,7.22915,1
0,3,2,21.0,0,0,3101294.0,7.925,3
0,3,2,70.5,0,0,370369.0,7.75,2
0,2,2,29.0,1,0,11668.0,10.5,3
0,3,1,2.0,4,2,347082.0,4.4678571428571425,3
0,2,2,21.0,2,0,14879.0,14.7,3
0,3,2,32.0,0,0,54510.0,8.05,3
0,2,2,32.5,1,0,237736.0,15.0354,1
1,2,1,32.5,0,0,27267.0,13.0,3
0,1,2,54.0,0,1,35281.0,38.64375,3
1,3,2,12.0,1,0,2651.0,5.62085,1
0,3,2,32.0,0,0,370372.0,7.75,2
1,3,2,24.0,0,0,17369.0,7.1417,3
1,3,1,21.0,1,1,2668.0,11.17915,1
0,3,2,45.0,0,0,347061.0,6.975,3
0,3,2,33.0,0,0,349241.0,7.8958,1
0,3,2,20.0,0,0,3101307.0,7.05,3
0,3,1,47.0,1,0,3337.0,14.5,3
1,2,1,29.0,1,0,228414.0,26.0,3
0,2,2,25.0,0,0,29178.0,13.0,3
0,2,2,23.0,0,0,2133.0,15.0458,1
1,1,1,19.0,0,2,11752.0,26.2833,3
0,1,2,37.0,1,0,113803.0,26.55,3
0,3,2,16.0,0,0,7534.0,4.60835,3
0,1,2,24.0,0,0,17593.0,39.6,1
0,3,1,35.0,0,2,2678.0,7.6229,1
1,3,1,22.0,0,0,347081.0,7.75,3
1,3,1,24.0,1,0,3101279.0,7.925,3
0,3,2,19.0,0,0,365222.0,6.75,2
0,2,2,18.0,0,0,231945.0,11.5,3
0,2,2,19.0,1,1,33112.0,18.375,3
1,3,2,27.0,0,0,350043.0,7.7958,3
0,3,1,9.0,2,2,6608.0,8.59375,3
0,2,2,36.5,0,2,230080.0,8.666666666666666,3
0,2,2,42.0,0,0,244310.0,13.0,3
0,2,2,51.0,0,0,1166.0,12.525,3
1,1,1,22.0,1,0,113776.0,33.3,3
0,3,2,55.5,0,0,11206.0,8.05,3
0,3,2,40.5,0,2,851.0,14.5,3
0,3,2,32.0,0,0,265302.0,7.3125,3
0,1,2,51.0,0,1,17597.0,61.3792,1
1,3,1,16.0,0,0,35851.0,7.7333,2
0,3,2,30.0,0,0,392090.0,8.05,3
0,3,2,32.0,0,0,315037.0,8.6625,3
0,3,2,4.0,8,2,2343.0,9.935714285714285,3
0,3,2,44.0,0,1,371362.0,16.1,3
1,2,1,40.0,0,0,33595.0,15.75,3
0,3,2,26.0,0,0,347068.0,7.775,3
0,3,2,17.0,0,0,315093.0,8.6625,3
0,3,2,1.0,4,1,3101295.0,6.614583333333333,3
1,3,2,9.0,0,2,363291.0,6.841666666666666,3
1,1,1,35.0,0,1,113505.0,27.5,3
0,3,1,45.0,1,4,347088.0,4.6499999999999995,3
0,1,2,32.0,0,0,17318.0,25.925,3
0,3,2,28.0,0,0,1601.0,8.070828571428573,3
0,1,2,61.0,0,0,111240.0,33.5,3
0,3,2,4.0,4,1,382652.0,5.825,2
1,3,1,1.0,1,1,347742.0,3.7111,3
0,3,2,21.0,0,0,3101280.0,7.925,3
0,1,2,56.0,0,0,17764.0,30.6958,1
0,3,2,18.0,1,1,350404.0,7.8542,3
0,3,2,4.0,3,1,4133.0,6.366675,3
0,1,1,50.0,0,0,17595.0,28.7125,1
0,2,2,30.0,0,0,250653.0,13.0,3
0,3,1,21.0,8,2,2343.0,9.935714285714285,3
0,2,2,32.0,0,0,2131.0,15.05,1
0,3,2,9.0,4,2,347077.0,7.846875,3
1,2,2,1.0,2,1,230136.0,19.5,3
1,3,1,4.0,0,2,315153.0,22.025,3
0,1,2,32.0,0,0,113767.0,50.0,3
1,3,1,35.0,1,0,370365.0,7.75,2
1,1,2,45.0,0,0,111428.0,26.55,3
0,3,2,40.0,1,1,364849.0,7.75,2
0,3,2,36.0,0,0,349247.0,7.8958,3
1,2,1,32.0,0,0,234604.0,13.0,3
0,2,2,19.0,0,0,28424.0,13.0,3
1,3,1,19.0,1,0,350046.0,7.8542,3
1,2,2,3.0,1,1,230080.0,8.666666666666666,3
1,1,1,44.0,0,0,17610.0,27.7208,1
0,3,2,32.0,0,0,368703.0,7.75,2
0,3,2,42.0,0,1,4579.0,8.4042,3
1,3,1,21.0,0,0,370370.0,7.75,2
0,2,1,24.0,0,0,248747.0,13.0,3
0,3,2,28.0,0,0,345770.0,9.5,3
0,3,2,32.0,8,2,2343.0,9.935714285714285,3
0,3,2,34.0,0,0,3101264.0,6.4958,3
0,3,2,45.5,0,0,2628.0,7.225,1
1,3,2,18.0,0,0,3540.0,8.05,3
0,3,1,2.0,0,1,347054.0,5.23125,3
0,3,2,32.0,1,0,3101278.0,7.925,3
1,3,2,26.0,0,0,2699.0,9.39375,1
1,3,1,16.0,0,0,367231.0,7.75,2
1,1,2,40.0,0,0,112277.0,31.0,1
0,3,2,24.0,0,0,3101311.0,7.05,3
1,2,1,35.0,0,0,13528.0,21.0,3
0,3,2,22.0,0,0,21174.0,7.25,3
0,2,2,30.0,0,0,250646.0,13.0,3
0,3,2,32.0,1,0,367229.0,7.75,2
1,1,1,31.0,1,0,35273.0,37.75833333333333,1
1,3,1,27.0,0,0,3101283.0,7.925,3
0,2,2,42.0,1,0,243847.0,13.5,3
0,2,2,30.0,0,0,14208.0,10.5,3
1,3,2,16.0,0,0,392089.0,8.05,3
0,2,2,27.0,0,0,220367.0,13.0,3
0,3,2,51.0,0,0,21440.0,8.05,3
0,3,2,32.0,0,0,349234.0,7.8958,3
1,1,2,38.0,1,0,19943.0,45.0,3
0,3,2,22.0,0,0,4348.0,9.35,3
1,2,2,19.0,0,0,751.0,5.25,3
0,3,2,20.5,0,0,21173.0,7.25,3
0,2,2,18.0,0,0,236171.0,13.0,3
0,3,1,21.0,3,1,4133.0,6.366675,3
1,1,1,35.0,1,0,36973.0,41.7375,3
0,3,2,29.0,0,0,347067.0,7.775,3
0,2,2,59.0,0,0,237442.0,13.5,3
1,3,1,5.0,4,2,347077.0,7.846875,3
0,2,2,24.0,0,0,29566.0,10.5,3
0,3,1,21.0,0,0,6609.0,7.55,3
0,2,2,44.0,1,0,26707.0,26.0,3
1,2,1,8.0,0,2,31921.0,8.75,3
0,2,2,19.0,0,0,28665.0,10.5,3
0,2,2,33.0,0,0,1585.0,12.275,3
0,3,1,21.0,1,0,2665.0,7.2271,1
1,3,1,21.0,1,0,367230.0,7.75,2
0,2,2,29.0,0,0,14263.0,10.5,3
0,3,2,22.0,0,0,3101275.0,7.125,3
0,3,2,30.0,0,0,2694.0,7.225,1
0,1,2,44.0,2,0,19928.0,45.0,2
0,3,1,25.0,0,0,347071.0,7.775,3
1,2,1,24.0,0,2,250649.0,7.25,3
1,1,2,37.0,1,1,11751.0,26.2771,3
0,2,2,54.0,1,0,244252.0,13.0,3
0,3,2,32.0,0,0,362316.0,7.25,3
0,3,1,29.0,1,1,347054.0,5.23125,3
0,1,2,62.0,0,0,113514.0,26.55,3
0,3,2,30.0,1,0,3336.0,8.05,3
0,3,1,41.0,0,2,370129.0,10.10625,3
1,3,1,29.0,0,2,2650.0,15.2458,1
1,1,1,30.0,0,0,110152.0,28.833333333333332,3
1,2,1,50.0,0,1,230433.0,13.0,3
0,3,2,32.0,0,0,384461.0,7.75,2
1,3,2,3.0,4,2,347077.0,7.846875,3
0,1,2,52.0,1,1,110413.0,26.55,3
0,1,2,40.0,0,0,112059.0,0.0,3
0,3,1,21.0,0,0,382649.0,7.75,2
0,2,2,36.0,0,0,17248.0,10.5,3
0,3,2,16.0,4,1,3101295.0,6.614583333333333,3
1,3,2,25.0,1,0,347083.0,7.775,3
1,1,1,58.0,0,1,17582.0,51.15416666666667,3
1,1,1,35.0,0,0,17760.0,45.211099999999995,3
0,1,2,32.0,0,0,113798.0,15.5,3
1,2,1,41.0,0,1,250644.0,9.75,3
0,1,2,37.0,0,1,17596.0,29.7,1
1,3,1,21.0,0,0,370375.0,7.75,2
1,1,1,63.0,1,0,13502.0,25.986099999999997,3
0,3,1,45.0,0,0,347073.0,7.75,3
0,2,2,32.0,0,0,239853.0,0.0,3
0,3,2,7.0,4,1,382652.0,5.825,2
1,3,1,35.0,1,1,2673.0,10.125,3
0,3,2,65.0,0,0,336439.0,7.75,2
0,3,2,28.0,0,0,347464.0,7.8542,3
0,3,2,16.0,0,0,345778.0,9.5,3
1,3,2,19.0,0,0,10482.0,8.05,3
0,1,2,32.0,0,0,113056.0,26.0,3
0,3,2,33.0,0,0,349239.0,8.6625,1
1,3,2,30.0,0,0,345774.0,9.5,3
0,3,2,22.0,0,0,349206.0,7.8958,3
1,2,2,42.0,0,0,237798.0,13.0,3
1,3,1,22.0,0,0,370373.0,7.75,2
1,1,1,26.0,0,0,19877.0,39.425,3
1,1,1,19.0,1,0,11967.0,45.5396,1
0,2,2,36.0,0,0,2163.0,12.875,1
0,3,1,24.0,0,0,349236.0,8.85,3
0,3,2,24.0,0,0,349233.0,7.8958,3
0,1,2,32.0,0,0,17612.0,27.7208,1
0,3,2,23.5,0,0,2693.0,7.2292,1
0,1,1,2.0,1,2,113781.0,37.8875,3
1,1,2,32.0,0,0,19988.0,30.5,3
1,3,1,21.0,0,0,9234.0,7.75,2
1,3,2,32.0,2,0,367226.0,11.625,2
1,2,1,21.0,0,0,226593.0,12.35,2
0,3,2,32.0,0,0,2466.0,8.05,3
1,1,2,0.92,1,2,113781.0,37.8875,3
1,1,1,21.0,0,0,17421.0,27.720825,1
1,1,1,17.0,1,0,17758.0,54.45,1
0,2,2,30.0,1,0,3381.0,12.0,1
1,1,1,30.0,0,0,17485.0,28.4646,1
1,1,1,24.0,0,0,11767.0,41.57915,1
0,2,1,26.0,1,1,250651.0,26.0,3
0,3,2,28.0,0,0,349243.0,7.8958,3
0,2,2,43.0,1,1,13529.0,8.75,3
1,3,1,26.0,0,0,347470.0,7.8542,3
1,2,1,24.0,1,0,244367.0,13.0,3
0,2,2,54.0,0,0,29011.0,14.0,3
0,3,2,22.0,0,0,21172.0,7.25,3
0,3,2,27.0,0,0,349219.0,7.8958,3
1,2,1,30.0,0,0,234818.0,12.35,2
1,2,1,22.0,1,1,248738.0,14.5,3
0,3,2,32.0,8,2,2343.0,9.935714285714285,3
1,1,1,36.0,0,0,17760.0,45.211099999999995,1
0,3,2,61.0,0,0,345364.0,6.2375,3
1,2,1,36.0,0,0,28551.0,13.0,3
1,3,1,31.0,1,1,363291.0,6.841666666666666,3
1,1,1,16.0,0,1,111361.0,28.9896,1
1,3,1,21.0,2,0,367226.0,11.625,2
0,1,2,45.5,0,0,113043.0,28.5,3
0,1,2,38.0,0,1,17582.0,51.15416666666667,3
0,3,2,16.0,2,0,345764.0,9.0,3
1,1,1,35.0,1,0,17611.0,66.825,3
0,3,2,32.0,0,0,349225.0,7.8958,3
0,1,2,29.0,1,0,113776.0,33.3,3
1,3,2,45.0,0,0,7598.0,8.05,3
0,1,2,45.0,0,0,113784.0,35.5,3
1,2,2,2.0,1,1,230080.0,8.666666666666666,3
1,1,1,24.0,3,2,19950.0,65.75,3
0,2,2,28.0,0,0,248740.0,13.0,3
0,2,2,25.0,0,0,244361.0,13.0,3
0,2,2,36.0,0,0,229236.0,13.0,3
1,2,1,24.0,0,0,248733.0,13.0,3
1,2,1,40.0,0,0,31418.0,13.0,3
1,3,1,35.0,1,0,386525.0,16.1,3
1,3,2,3.0,1,1,37671.0,7.95,3
0,3,2,42.0,0,0,315088.0,8.6625,3
0,3,2,23.0,0,0,7267.0,9.225,3
0,1,2,32.0,0,0,113510.0,35.0,3
0,3,2,15.0,1,1,2695.0,7.2292,1
0,3,2,25.0,1,0,349237.0,8.9,3
0,3,2,32.0,0,0,2647.0,7.225,1
0,3,2,28.0,0,0,345783.0,9.5,3
1,1,1,22.0,0,1,113505.0,27.5,3
0,2,1,38.0,0,0,237671.0,13.0,3
1,3,1,21.0,0,0,330931.0,7.8792,2
1,3,1,21.0,0,0,330980.0,7.8792,2
0,3,2,40.0,1,4,347088.0,4.6499999999999995,3
0,2,2,29.0,1,0,2167.0,27.7208,1
0,3,1,45.0,0,1,2691.0,7.2271,1
0,3,2,35.0,0,0,3101310.0,7.05,3
0,3,2,32.0,1,0,370365.0,7.75,2
0,3,2,30.0,0,0,7076.0,7.25,3
1,3,1,35.0,0,0,2626.0,7.2292,1
1,3,1,21.0,0,0,14313.0,7.75,2
1,1,1,24.0,0,0,17477.0,34.65,1
1,1,2,25.0,1,0,11765.0,55.4417,1
0,3,2,18.0,1,0,3101267.0,6.4958,3
0,3,2,19.0,0,0,323951.0,8.05,3
0,1,2,22.0,0,0,17760.0,45.211099999999995,1
0,3,1,3.0,3,1,349909.0,5.26875,3
1,1,1,35.0,1,0,17604.0,41.0854,1
1,3,1,22.0,0,0,7077.0,7.25,3
0,3,2,20.0,0,0,2648.0,4.0125,1
0,3,2,19.0,0,0,347069.0,7.775,3
1,1,1,42.0,0,0,17757.0,56.88125,1
1,3,1,1.0,0,2,2653.0,7.87085,1
0,3,2,32.0,0,0,3101293.0,7.925,3
1,1,1,35.0,1,0,113789.0,26.0,3
0,3,2,32.0,0,0,349227.0,7.8958,3
0,2,2,18.0,0,0,14879.0,14.7,3
0,3,2,1.0,5,2,2144.0,7.816666666666666,3
1,2,1,36.0,0,0,27849.0,13.0,3
0,3,2,32.0,0,0,367655.0,7.7292,2
1,2,1,17.0,0,0,1748.0,12.0,1
1,1,2,36.0,1,2,113760.0,30.0,3
1,3,2,21.0,0,0,350034.0,7.7958,3
0,3,2,28.0,2,0,3101277.0,7.925,3
1,1,1,23.0,1,0,35273.0,37.75833333333333,1
1,3,1,24.0,0,2,9549.0,8.35,3
0,3,2,22.0,0,0,350052.0,7.7958,3
0,3,1,31.0,0,0,350407.0,7.8542,3
0,2,2,46.0,0,0,28403.0,13.0,3
0,2,2,23.0,0,0,244278.0,10.5,3
1,2,1,28.0,0,0,240929.0,12.65,3
1,3,2,39.0,0,0,3101289.0,7.925,3
0,3,2,26.0,0,0,341826.0,8.05,3
0,3,1,21.0,1,0,4137.0,9.825,3
0,3,2,28.0,1,0,3101279.0,7.925,3
0,3,1,20.0,0,0,315096.0,8.6625,3
0,2,2,34.0,1,0,28664.0,21.0,3
0,3,2,51.0,0,0,347064.0,7.75,3
1,2,2,3.0,1,1,29106.0,6.25,3
0,3,2,21.0,0,0,312992.0,7.775,3
0,3,1,21.0,3,1,4133.0,6.366675,3
0,3,2,32.0,0,0,349222.0,7.8958,3
0,3,2,32.0,0,0,394140.0,6.8583,2
1,1,1,33.0,1,0,19928.0,45.0,2
0,2,2,32.0,0,0,239853.0,0.0,3
1,3,2,44.0,0,0,3101269.0,7.925,3
0,3,1,35.0,0,0,343095.0,8.05,3
1,2,1,34.0,1,1,28220.0,32.5,3
1,2,1,18.0,0,2,250652.0,13.0,3
0,2,2,30.0,0,0,28228.0,13.0,3
0,3,1,10.0,0,2,345773.0,8.049999999999999,3
0,3,2,32.0,0,0,349254.0,7.8958,1
0,3,2,21.0,0,0,13032.0,7.7333,2
0,3,2,29.0,0,0,315082.0,7.875,3
0,3,1,28.0,1,1,347080.0,7.2,3
0,3,2,18.0,1,1,370129.0,10.10625,3
0,3,2,32.0,0,0,34244.0,7.25,3
1,2,1,28.0,1,0,2003.0,26.0,3
1,2,1,19.0,0,0,250655.0,13.0,3
0,3,2,32.0,0,0,364851.0,7.75,2
1,3,2,32.0,0,0,392078.0,8.05,3
1,1,2,28.0,0,0,110564.0,26.55,3
1,3,1,35.0,1,0,376564.0,8.05,3
1,2,1,42.0,1,0,3085.0,26.0,3
0,3,2,17.0,0,0,3101274.0,7.125,3
0,1,2,50.0,1,0,13507.0,27.95,3
1,1,1,14.0,1,2,113760.0,30.0,3
0,3,1,21.0,2,2,6608.0,8.59375,3
1,2,1,24.0,2,3,29106.0,6.25,3
0,1,2,64.0,1,4,19950.0,65.75,3
0,2,2,31.0,0,0,18723.0,10.5,3
1,2,1,45.0,1,1,13529.0,8.75,3
0,3,2,20.0,0,0,345769.0,9.5,3
0,3,2,25.0,1,0,347076.0,7.775,3
1,2,1,28.0,0,0,230434.0,13.0,3
1,3,2,32.0,0,0,65306.0,8.1125,3
1,2,1,13.0,0,1,250644.0,9.75,3
1,1,2,34.0,0,0,113794.0,26.55,3
1,3,1,5.0,2,1,2666.0,4.814575,1
1,1,2,52.0,0,0,113786.0,30.5,3
0,2,2,36.0,1,2,34651.0,9.25,3
0,3,2,32.0,1,0,65303.0,19.9667,3
0,1,2,30.0,0,0,113051.0,27.75,1
1,1,2,49.0,1,0,17453.0,44.5521,1
0,3,2,32.0,0,0,2817.0,8.05,3
1,3,2,29.0,0,0,349240.0,7.8958,1
0,1,2,65.0,0,0,13509.0,26.55,3
1,1,1,35.0,1,0,17464.0,51.8625,3
1,2,1,50.0,0,0,13531.0,10.5,3
0,3,2,32.0,0,0,371060.0,7.75,2
1,1,2,48.0,0,0,19952.0,26.55,3
0,3,2,34.0,0,0,364506.0,8.05,3
0,1,2,47.0,0,0,111320.0,38.5,3
0,2,2,48.0,0,0,234360.0,13.0,3
0,3,2,32.0,0,0,2816.0,8.05,3
0,3,2,38.0,0,0,3101306.0,7.05,3
0,2,2,32.0,0,0,239853.0,0.0,3
0,1,2,56.0,0,0,113792.0,26.55,3
0,3,2,32.0,0,0,36209.0,7.725,2
1,3,1,0.75,2,1,2666.0,4.814575,1
0,3,2,32.0,0,0,323592.0,7.25,3
0,3,2,38.0,0,0,315089.0,8.6625,3
1,2,1,33.0,1,2,34651.0,9.25,3
1,2,1,23.0,0,0,541.0,13.7917,1
0,3,1,22.0,0,0,7553.0,9.8375,3
0,1,2,32.0,0,0,110465.0,26.0,3
0,2,2,34.0,1,0,31027.0,10.5,3
0,3,2,29.0,1,0,3460.0,7.0458,3
0,3,2,22.0,0,0,350060.0,7.5208,3
1,3,1,2.0,0,1,3101298.0,12.2875,3
0,3,2,9.0,5,2,2144.0,7.816666666666666,3
0,2,2,32.0,0,0,239854.0,0.0,3
0,3,2,50.0,0,0,3594.0,8.05,3
1,3,1,63.0,0,0,4134.0,9.5875,3
1,1,2,25.0,1,0,11967.0,45.5396,1
0,3,1,21.0,3,1,4133.0,6.366675,3
1,1,1,35.0,1,0,19943.0,45.0,3
0,1,2,58.0,0,0,11771.0,29.7,1
0,3,2,30.0,0,0,18509.0,8.05,3
1,3,2,9.0,1,1,37671.0,7.95,3
0,3,2,32.0,1,0,65304.0,19.9667,3
0,3,2,21.0,0,0,3101317.0,7.25,3
0,1,2,55.0,0,0,113787.0,30.5,3
0,1,2,71.0,0,0,17609.0,49.5042,1
0,3,2,21.0,0,0,45380.0,8.05,3
0,3,2,32.0,0,0,2627.0,7.22915,1
1,1,1,54.0,1,0,36947.0,39.13335,1
0,3,2,32.0,0,0,6212.0,15.1,3
0,1,1,25.0,1,2,113781.0,37.8875,3
0,3,2,24.0,0,0,350035.0,7.7958,3
0,3,2,17.0,0,0,315086.0,8.6625,3
0,3,1,21.0,0,0,364846.0,7.75,2
0,3,1,21.0,0,0,330909.0,7.6292,2
0,3,1,37.0,0,0,4135.0,9.5875,3
1,1,1,16.0,0,0,110152.0,28.833333333333332,3
0,1,2,18.0,1,0,17758.0,54.45,1
1,2,1,33.0,0,2,26360.0,13.0,3
1,1,2,32.0,0,0,111427.0,26.55,3
0,3,2,28.0,0,0,4001.0,22.525,3
1,3,2,26.0,0,0,1601.0,8.070828571428573,3
1,3,2,29.0,0,0,382651.0,7.75,2
0,3,2,32.0,0,0,3101316.0,8.05,3
1,1,2,36.0,0,0,17473.0,26.2875,3
1,1,1,54.0,1,0,17603.0,59.4,1
0,3,2,24.0,0,0,349209.0,7.4958,3
0,1,2,47.0,0,0,36967.0,34.0208,3
1,2,1,34.0,0,0,34260.0,10.5,3
0,3,2,32.0,0,0,371110.0,8.049999999999999,2
1,2,1,36.0,1,0,226875.0,26.0,3
0,3,2,32.0,0,0,349242.0,7.8958,3
1,1,1,30.0,0,0,12749.0,46.75,3
0,3,2,22.0,0,0,349252.0,7.8958,3
0,3,2,32.0,0,0,2624.0,7.225,1
1,1,1,44.0,0,1,111361.0,28.9896,1
0,3,2,32.0,0,0,2700.0,7.2292,1
0,3,2,40.5,0,0,367232.0,7.75,2
1,2,1,50.0,0,0,14258.0,10.5,3
0,3,2,39.0,0,0,3101296.0,7.925,3
0,2,2,23.0,2,1,29104.0,11.5,3
1,2,1,2.0,1,1,26360.0,13.0,3
0,3,2,32.0,0,0,2641.0,7.2292,1
0,3,2,17.0,1,1,2690.0,7.2292,1
1,3,1,35.0,0,2,2668.0,11.17915,1
0,3,1,30.0,0,0,315084.0,8.6625,3
1,2,1,7.0,0,2,13529.0,8.75,3
0,1,2,45.0,0,0,113050.0,26.55,3
1,1,1,30.0,0,0,17761.0,53.2125,1
0,3,2,32.0,0,0,364498.0,14.5,3
1,1,1,22.0,0,2,13568.0,49.5,1
1,1,1,36.0,0,2,5735.0,35.5,3
0,3,1,9.0,4,2,347082.0,4.4678571428571425,3
0,3,1,11.0,4,2,347082.0,4.4678571428571425,3
1,2,2,32.0,1,0,2908.0,13.0,3
0,1,2,50.0,1,0,17761.0,53.2125,1
0,1,2,64.0,0,0,693.0,26.0,3
1,2,1,19.0,1,0,2908.0,13.0,3
1,2,2,32.0,0,0,2146.0,13.8625,1
0,3,2,33.0,1,1,363291.0,6.841666666666666,3
1,2,2,8.0,1,1,33112.0,18.375,3
1,1,2,17.0,0,2,17421.0,27.720825,1
0,2,2,27.0,0,0,244358.0,26.0,3
0,3,2,32.0,0,0,330979.0,7.8292,2
1,3,2,22.0,0,0,2620.0,7.225,1
1,3,1,22.0,0,0,347085.0,7.775,3
0,1,2,62.0,0,0,113807.0,26.55,3
1,1,1,48.0,1,0,11755.0,39.6,1
0,1,2,32.0,0,0,17757.0,56.88125,1
1,1,1,39.0,1,1,110413.0,26.55,3
1,3,1,36.0,1,0,345572.0,17.4,3
0,3,2,32.0,0,0,372622.0,7.75,2
0,3,2,40.0,0,0,349251.0,7.8958,3
0,2,2,28.0,0,0,218629.0,13.5,3
0,3,2,32.0,0,0,392082.0,8.05,3
0,3,1,21.0,0,0,392087.0,8.05,3
0,3,2,24.0,2,0,48871.0,12.075,3
0,3,2,19.0,0,0,349205.0,7.8958,3
0,3,1,29.0,0,4,349909.0,5.26875,3
0,3,2,32.0,0,0,2686.0,7.2292,1
1,3,2,32.0,0,0,350417.0,7.8542,3
1,2,2,62.0,0,0,752.0,10.5,3
1,1,1,53.0,2,0,11769.0,51.4792,3
1,1,2,36.0,0,0,17474.0,8.795833333333333,3
1,3,1,21.0,0,0,14312.0,7.75,2
0,3,2,16.0,0,0,20589.0,8.05,3
0,3,2,19.0,0,0,358585.0,7.25,3
1,2,1,34.0,0,0,243880.0,13.0,3
1,1,1,39.0,1,0,13507.0,27.95,3
0,3,1,35.0,1,0,2689.0,14.4583,1
1,3,2,32.0,0,0,3101286.0,7.925,3
1,2,1,25.0,1,1,237789.0,30.0,3
1,1,1,39.0,1,1,17421.0,27.720825,1
0,2,2,54.0,0,0,28403.0,13.0,3
0,1,2,36.0,0,0,13049.0,40.125,1
0,3,2,32.0,0,0,3411.0,8.7125,1
1,1,1,18.0,0,2,110413.0,26.55,3
0,2,2,47.0,0,0,237565.0,15.0,3
0,3,2,22.0,0,0,14973.0,8.05,3
0,3,2,32.0,0,0,3235.0,8.05,3
0,3,2,35.0,0,0,3101273.0,7.125,3
1,1,1,52.0,1,0,36947.0,39.13335,1
0,3,2,47.0,0,0,3902.0,7.25,3
0,3,1,21.0,0,2,364848.0,7.75,2
0,2,2,37.0,1,0,29037.0,26.0,3
0,3,2,36.0,1,1,345773.0,8.049999999999999,3
1,2,1,21.0,0,0,248727.0,11.0,3
0,3,2,32.0,0,0,2664.0,7.225,1
1,1,2,49.0,1,0,17485.0,28.4646,1
1,2,1,24.0,2,1,243847.0,13.5,3
0,3,2,32.0,0,0,349214.0,7.8958,3
0,1,2,32.0,0,0,113796.0,42.4,3
0,3,2,44.0,0,0,364511.0,8.05,3
1,1,2,35.0,0,0,111426.0,26.55,1
0,3,2,36.0,1,0,349910.0,15.55,3
0,3,2,30.0,0,0,349246.0,7.8958,3
1,1,2,27.0,0,0,113804.0,30.5,3
1,2,1,22.0,1,2,2123.0,13.859733333333333,1
1,1,1,40.0,0,0,17582.0,51.15416666666667,3
0,3,1,39.0,1,5,347082.0,4.4678571428571425,3
0,3,2,32.0,0,0,3101305.0,7.05,3
1,3,1,21.0,1,0,367230.0,7.75,2
0,3,2,32.0,0,0,370377.0,7.75,2
0,3,2,35.0,0,0,364512.0,8.05,3
1,2,1,24.0,1,2,220845.0,32.5,3
0,3,2,34.0,1,1,347080.0,7.2,3
0,3,1,26.0,1,0,3336.0,8.05,3
1,2,1,4.0,2,1,230136.0,19.5,3
0,2,2,26.0,0,0,31028.0,10.5,3
0,3,2,27.0,1,0,2659.0,7.2271,1
1,1,2,42.0,1,0,11753.0,52.5542,3
1,3,2,20.0,1,1,2653.0,7.87085,1
0,3,2,21.0,0,0,350029.0,7.8542,3
0,3,2,21.0,0,0,54636.0,8.05,3
0,1,2,61.0,0,0,36963.0,32.3208,3
0,2,2,57.0,0,0,219533.0,12.35,2
1,1,1,21.0,0,0,13502.0,25.986099999999997,3
0,3,2,26.0,0,0,349224.0,7.8958,3
0,3,2,32.0,0,0,334912.0,7.7333,2
1,1,2,80.0,0,0,27042.0,30.0,3
0,3,2,51.0,0,0,347743.0,7.0542,3
1,1,2,32.0,0,0,13214.0,30.5,1
0,1,2,32.0,0,0,112052.0,0.0,3
0,3,1,9.0,3,2,347088.0,4.6499999999999995,3
1,2,1,28.0,0,0,237668.0,13.0,3
0,3,2,32.0,0,0,3101292.0,7.925,3
0,2,2,31.0,1,1,31921.0,8.75,3
0,3,1,41.0,0,5,3101295.0,6.614583333333333,3
0,3,2,32.0,1,0,376564.0,8.05,3
0,3,2,20.0,0,0,350050.0,7.8542,3
1,1,1,24.0,0,0,17477.0,34.65,1
0,3,1,2.0,3,2,347088.0,4.6499999999999995,3
1,3,2,32.0,0,0,1601.0,8.070828571428573,3
1,3,1,0.75,2,1,2666.0,4.814575,1
1,1,2,48.0,1,0,17572.0,25.576400000000003,1
0,3,2,19.0,0,0,349231.0,7.8958,3
1,1,2,56.0,0,0,13213.0,35.5,1
0,3,2,32.0,0,0,751.0,3.775,3
1,3,1,23.0,0,0,2314.0,7.55,3
0,3,2,32.0,0,0,349221.0,7.8958,3
1,2,1,18.0,0,1,231919.0,11.5,3
0,3,2,21.0,0,0,8475.0,8.4333,3
1,3,1,21.0,0,0,330919.0,7.8292,2
0,3,1,18.0,0,0,365226.0,6.75,2
0,2,2,24.0,2,0,14879.0,14.7,3
0,3,2,32.0,0,0,349223.0,7.8958,3
0,3,1,32.0,1,1,364849.0,7.75,2
0,2,2,23.0,0,0,29751.0,13.0,3
0,1,2,58.0,0,2,35273.0,37.75833333333333,1
1,1,2,50.0,2,0,17611.0,66.825,3
0,3,2,40.0,0,0,2623.0,7.225,1
0,1,2,47.0,0,0,5727.0,25.5875,3
0,3,2,36.0,0,0,349210.0,7.4958,3
1,3,2,20.0,1,0,3101285.0,7.925,3
0,2,2,32.0,2,0,14879.0,14.7,3
0,2,2,25.0,0,0,234686.0,13.0,3
0,3,2,32.0,0,0,312993.0,7.775,3
0,3,2,43.0,0,0,3536.0,8.05,3
1,1,1,35.0,1,0,19996.0,26.0,3
1,2,1,40.0,1,1,29750.0,19.5,3
0,1,2,31.0,1,0,12750.0,52.0,3
0,2,2,70.0,0,0,24580.0,10.5,3
1,2,2,31.0,0,0,244270.0,13.0,3
0,2,2,32.0,0,0,239856.0,0.0,3
0,3,2,18.0,0,0,349912.0,7.775,3
0,3,2,24.5,0,0,342826.0,8.05,3
1,3,1,18.0,0,0,4138.0,9.8417,3
0,3,1,43.0,1,6,2144.0,7.816666666666666,3
0,3,1,21.0,0,0,330935.0,8.1375,2
1,1,2,27.0,0,0,17572.0,25.576400000000003,1
0,3,2,20.0,0,0,6563.0,9.225,3
0,3,2,14.0,5,2,2144.0,7.816666666666666,3
0,2,2,60.0,1,1,29750.0,19.5,3
0,2,2,25.0,1,2,2123.0,13.859733333333333,1
0,3,2,14.0,4,1,3101295.0,6.614583333333333,3
0,3,2,19.0,0,0,349228.0,10.1708,3
0,3,2,18.0,0,0,350036.0,7.7958,3
1,1,2,31.0,1,0,17474.0,19.0,3
1,3,1,4.0,0,1,349256.0,13.4167,1
1,3,2,32.0,0,0,1601.0,8.070828571428573,3
0,3,2,25.0,0,0,2672.0,7.225,1
0,1,2,60.0,0,0,113800.0,26.55,3
0,2,2,52.0,0,0,248731.0,13.5,3
0,3,2,44.0,0,0,363592.0,8.05,3
1,3,1,21.0,0,0,35852.0,7.7333,2
0,1,2,49.0,1,1,17421.0,27.720825,1
0,3,2,42.0,0,0,348121.0,7.65,3
1,1,1,18.0,1,0,17757.0,56.88125,1
1,1,2,35.0,0,0,17475.0,26.2875,3
0,3,1,18.0,0,1,2691.0,7.2271,1
0,3,2,25.0,0,0,36864.0,7.7417,2
0,3,2,26.0,1,0,350025.0,7.8542,3
0,2,2,39.0,0,0,250655.0,13.0,3
1,2,1,45.0,0,0,223596.0,13.5,3
1,1,2,42.0,0,0,17476.0,26.2875,3
1,1,1,22.0,0,0,113781.0,37.8875,3
1,3,2,4.0,1,1,2661.0,7.6229,1
1,1,1,24.0,0,0,17482.0,49.5042,1
0,1,2,32.0,0,0,113028.0,26.55,3
1,1,2,48.0,1,0,19996.0,26.0,3
0,3,2,29.0,0,0,7545.0,9.4833,3
0,2,2,52.0,0,0,250647.0,6.5,3
0,3,2,19.0,0,0,348124.0,7.65,3
1,1,1,38.0,0,0,17757.0,56.88125,1
1,2,1,27.0,0,0,34218.0,10.5,3
0,3,2,32.0,0,0,36568.0,15.5,2
0,3,2,33.0,0,0,347062.0,7.775,3
1,2,1,6.0,0,1,248727.0,11.0,3
0,3,2,17.0,1,0,350048.0,7.0542,3
0,2,2,34.0,0,0,12233.0,13.0,3
0,2,2,50.0,0,0,250643.0,13.0,3
1,1,2,27.0,1,0,113806.0,26.55,3
0,3,2,20.0,0,0,315094.0,8.6625,3
1,2,1,30.0,3,0,31027.0,10.5,3
1,3,1,21.0,0,0,36866.0,7.7375,2
0,2,2,25.0,1,0,236853.0,26.0,3
0,3,1,25.0,1,0,3101271.0,7.925,3
0,3,2,11.0,0,0,2699.0,9.39375,1
0,2,2,32.0,0,0,239855.0,0.0,3
0,2,2,23.0,0,0,28425.0,13.0,3
0,2,2,23.0,0,0,233639.0,13.0,3
0,3,2,28.5,0,0,54636.0,8.05,3
0,3,1,48.0,1,3,6608.0,8.59375,3
0,3,2,32.0,0,0,349201.0,7.8958,3
0,3,2,32.0,0,0,349218.0,7.8958,3
1,1,2,32.0,0,0,16988.0,30.0,3
0,1,2,36.0,1,0,19877.0,39.425,3
0,3,2,24.0,1,0,376566.0,16.1,3
1,3,2,31.0,0,0,3101288.0,7.925,3
0,1,2,70.0,1,1,5735.0,35.5,3
0,3,2,16.0,1,1,2673.0,10.125,3
1,2,1,30.0,0,0,250648.0,13.0,3
0,1,2,19.0,1,0,113773.0,53.1,3
0,3,2,31.0,0,0,335097.0,7.75,2
1,2,1,4.0,1,1,29103.0,23.0,3
1,3,2,6.0,0,1,392096.0,6.2375,3
0,3,2,33.0,0,0,345780.0,9.5,3
0,3,2,23.0,0,0,349204.0,7.8958,3
1,2,1,48.0,1,2,220845.0,32.5,3
1,2,2,0.67,1,1,250649.0,7.25,3
0,3,2,28.0,0,0,350042.0,7.7958,3
0,2,2,18.0,0,0,29108.0,11.5,3
0,3,2,34.0,0,0,363294.0,8.05,3
1,1,1,33.0,0,0,110152.0,28.833333333333332,3
0,3,2,32.0,0,0,358585.0,7.25,3
0,3,2,41.0,0,0,3101272.0,7.125,3
1,3,2,20.0,0,0,2663.0,7.2292,1
1,1,1,36.0,1,2,113760.0,30.0,3
0,3,2,16.0,0,0,347074.0,7.775,3
1,1,1,51.0,1,0,13502.0,25.986099999999997,3
0,1,2,42.0,0,0,112379.0,39.6,1
0,3,1,30.5,0,0,364850.0,7.75,2
0,3,2,32.0,1,0,371110.0,8.049999999999999,2
0,3,2,32.0,0,0,8471.0,8.3625,3
0,3,2,24.0,0,0,345781.0,9.5,3
0,3,2,48.0,0,0,350047.0,7.8542,3
0,2,1,57.0,0,0,3.0,5.25,3
0,3,2,32.0,0,0,2674.0,7.225,1
1,2,1,54.0,1,3,29105.0,23.0,3
0,3,2,18.0,0,0,347078.0,7.75,3
0,3,2,32.0,0,0,383121.0,7.75,2
1,3,1,5.0,0,0,364516.0,6.2375,3
0,3,2,32.0,0,0,36865.0,7.7375,2
1,3,1,13.0,0,0,2687.0,7.2292,1
1,1,1,17.0,1,0,17474.0,19.0,3
0,1,2,29.0,0,0,113501.0,30.0,3
0,3,2,32.0,1,2,6607.0,11.725,3
0,3,2,25.0,0,0,3101312.0,7.05,3
0,3,2,25.0,0,0,374887.0,7.25,3
1,3,1,18.0,0,0,3101265.0,7.4958,3
0,3,2,8.0,4,1,382652.0,5.825,2
1,3,2,1.0,1,2,2315.0,10.2875,3
0,1,2,46.0,0,0,17593.0,39.6,1
0,3,2,32.0,0,0,12460.0,7.75,2
0,2,2,16.0,0,0,239865.0,13.0,3
0,3,1,21.0,8,2,2343.0,9.935714285714285,3
0,1,2,32.0,0,0,17600.0,30.6958,1
0,3,2,25.0,0,0,349203.0,7.8958,3
0,2,2,39.0,0,0,28213.0,13.0,3
1,1,1,49.0,0,0,17465.0,25.9292,3
1,3,1,31.0,0,0,349244.0,8.6833,3
0,3,2,30.0,0,0,2685.0,7.2292,1
0,3,1,30.0,1,1,345773.0,8.049999999999999,3
0,2,2,34.0,0,0,250647.0,6.5,3
1,2,1,31.0,1,1,31921.0,8.75,3
1,1,2,11.0,1,2,113760.0,30.0,3
1,3,2,0.42,0,1,2625.0,8.5167,1
1,3,2,27.0,0,0,347089.0,6.975,3
0,3,2,31.0,0,0,347063.0,7.775,3
0,1,2,39.0,0,0,112050.0,0.0,3
0,3,1,18.0,0,0,347087.0,7.775,3
0,2,2,39.0,0,0,248723.0,13.0,3
1,1,1,33.0,1,0,113806.0,26.55,3
0,3,2,26.0,0,0,3474.0,7.8875,3
0,3,2,39.0,0,0,48871.0,12.075,3
0,2,2,35.0,0,0,28206.0,10.5,3
0,3,1,6.0,4,2,347082.0,4.4678571428571425,3
0,3,2,30.5,0,0,364499.0,8.05,3
0,1,2,32.0,0,0,112058.0,0.0,3
0,3,1,23.0,0,0,3101290.0,7.925,3
0,2,2,31.0,1,1,2079.0,18.5021,1
0,3,2,43.0,0,0,7075.0,6.45,3
0,3,2,10.0,3,2,347088.0,4.6499999999999995,3
1,1,1,52.0,1,1,12749.0,46.75,3
1,3,2,27.0,0,0,315098.0,8.6625,3
0,1,2,38.0,0,0,19972.0,0.0,3
1,3,1,27.0,0,1,392096.0,6.2375,3
0,3,2,2.0,4,1,3101295.0,6.614583333333333,3
0,3,2,32.0,0,0,368323.0,6.95,2
0,3,2,32.0,0,0,1601.0,8.070828571428573,3
1,2,2,1.0,0,2,2079.0,18.5021,1
1,3,2,32.0,0,0,367228.0,7.75,2
1,1,1,62.0,0,0,113572.0,40.0,3
1,3,1,15.0,1,0,2659.0,7.2271,1
1,2,2,0.83,1,1,29106.0,6.25,3
0,3,2,32.0,0,0,2671.0,7.2292,1
0,3,2,23.0,0,0,347468.0,7.8542,3
0,3,2,18.0,0,0,2223.0,8.3,3
0,3,2,21.0,0,0,315097.0,8.6625,3
0,3,2,32.0,0,0,392092.0,8.05,3
1,3,2,32.0,0,0,1601.0,8.070828571428573,3
1,1,2,32.0,0,0,11774.0,29.7,1
0,3,2,20.0,0,0,3101287.0,7.925,3
0,2,2,16.0,0,0,3.0,5.25,3
1,1,1,30.0,0,0,113798.0,15.5,1
0,3,2,34.5,0,0,2683.0,6.4375,1
0,3,2,17.0,0,0,315090.0,8.6625,3
0,3,2,42.0,0,0,5547.0,7.55,3
0,3,2,32.0,8,2,2343.0,9.935714285714285,3
0,3,2,35.0,0,0,349213.0,7.8958,1
0,2,2,28.0,0,1,248727.0,11.0,3
1,1,1,35.0,1,0,17453.0,44.5521,1
0,3,2,4.0,4,2,347082.0,4.4678571428571425,3
0,3,2,74.0,0,0,347060.0,7.775,3
0,3,1,9.0,1,1,2678.0,7.6229,1
1,1,1,16.0,0,1,17592.0,39.4,3
0,2,1,44.0,1,0,244252.0,13.0,3
1,3,1,18.0,0,1,392091.0,9.35,3
1,1,2,51.0,0,0,113055.0,26.55,3
1,3,1,24.0,0,3,2666.0,4.814575,1
0,3,2,32.0,0,0,2629.0,7.2292,1
0,3,2,41.0,2,0,350026.0,14.1083,3
0,2,2,21.0,1,0,28134.0,11.5,3
1,1,1,48.0,0,0,17466.0,25.9292,3
0,3,1,21.0,8,2,2343.0,9.935714285714285,3
0,2,2,24.0,0,0,233866.0,13.0,3
1,2,1,42.0,0,0,236852.0,13.0,3
1,2,1,27.0,1,0,2149.0,13.8583,1
0,1,2,31.0,0,0,17590.0,50.4958,3
0,3,2,32.0,0,0,345777.0,9.5,3
1,3,2,4.0,1,1,347742.0,3.7111,3
0,3,2,26.0,0,0,349248.0,7.8958,3
1,1,1,47.0,1,1,11751.0,26.2771,3
0,1,2,33.0,0,0,695.0,5.0,3
0,3,2,47.0,0,0,345765.0,9.0,3
1,2,1,28.0,1,0,3381.0,12.0,1
1,3,1,15.0,0,0,2667.0,7.225,1
0,3,2,20.0,0,0,7534.0,4.9229,3
0,3,2,19.0,0,0,349212.0,7.8958,3
0,3,2,32.0,0,0,349217.0,7.8958,3
1,1,1,56.0,0,1,11767.0,41.57915,1
1,2,1,25.0,0,1,230433.0,13.0,3
0,3,2,33.0,0,0,349257.0,7.8958,3
0,3,1,22.0,0,0,7552.0,10.5167,3
0,2,2,28.0,0,0,34068.0,10.5,3
0,3,2,25.0,0,0,392076.0,7.05,3
0,3,1,39.0,0,5,382652.0,5.825,2
0,2,2,27.0,0,0,211536.0,13.0,3
1,1,1,19.0,0,0,112053.0,30.0,3
0,3,1,21.0,1,2,6607.0,11.725,3
1,1,2,26.0,0,0,111369.0,30.0,1
0,3,2,32.0,0,0,370376.0,7.75,2
